<svg xmlns="http://www.w3.org/2000/svg" xmlns:xlink="http://www.w3.org/1999/xlink" preserveAspectRatio="xMidYMid" width="29" height="24" viewBox="0 0 29 24">
  <defs>
    <style>
      .cls-1 {
        fill: #b5b5b5;
        fill-rule: evenodd;
      }
    </style>
  </defs>
  <path d="M25.972,20.334 L25.972,24.000 L23.373,24.000 L23.373,20.334 L5.627,20.334 L5.627,24.000 L3.028,24.000 L3.028,20.334 L-0.000,20.334 L-0.000,17.671 L29.000,17.671 L29.000,20.334 L25.972,20.334 ZM3.250,10.855 L3.250,1.331 L4.550,-0.000 L24.450,-0.000 L25.749,1.331 L25.749,10.855 L28.942,16.033 L0.058,16.033 L3.250,10.855 ZM5.849,9.308 C7.524,8.864 10.417,8.317 14.500,8.317 C18.583,8.317 21.476,8.864 23.151,9.308 L23.151,2.663 L5.849,2.663 L5.849,9.308 ZM15.554,6.932 L15.554,5.381 C15.554,4.460 16.859,3.714 18.467,3.714 C20.076,3.714 21.380,4.460 21.380,5.381 L21.380,7.709 C21.380,7.709 19.662,7.265 18.481,7.151 C17.418,7.048 15.554,6.932 15.554,6.932 ZM7.619,7.709 L7.619,5.381 C7.619,4.460 8.924,3.714 10.532,3.714 C12.141,3.714 13.445,4.460 13.445,5.381 L13.445,6.932 C13.445,6.932 11.582,7.048 10.519,7.151 C9.338,7.265 7.619,7.709 7.619,7.709 Z" class="cls-1"/>
</svg>
