<?xml version="1.0" encoding="utf-8"?>
<!-- Generator: Adobe Illustrator 19.0.0, SVG Export Plug-In . SVG Version: 6.00 Build 0)  -->
<svg version="1.1" id="Layer_1" xmlns="http://www.w3.org/2000/svg" xmlns:xlink="http://www.w3.org/1999/xlink" x="0px" y="0px"
	 width="27px" height="27px" viewBox="0 0 27 27" style="enable-background:new 0 0 27 27;" xml:space="preserve">
<style type="text/css">
	.st0{fill:#00A3E7;}
	.st1{fill:#FFFFFF;}
</style>
<path id="XMLID_1_" class="st0" d="M22.1,27H4.9C2.2,27,0,24.8,0,22.1V4.9C0,2.2,2.2,0,4.9,0h17.2C24.8,0,27,2.2,27,4.9v17.2
	C27,24.8,24.8,27,22.1,27z"/>
<g id="XMLID_3_">
	<g id="XMLID_4_">
		<path id="XMLID_6_" class="st1" d="M16.7,2.7h-5.2c-2.3,0-3.9,0.5-5.3,1.7c-1.1,1-1.8,2.4-1.8,3.8c0,2.2,1.6,4.4,4.7,4.4
			c0.3,0,0.6,0,0.9-0.1v0.1c-0.1,0.3-0.2,0.6-0.2,1c0,0.8,0.4,1.4,0.8,1.9v0.1h-0.1c-1.3,0.1-3.6,0.2-5.3,1.3C3.1,18,3,19.8,3,20.3
			c0,2,1.9,4,6.1,4c4.9,0,7.4-2.7,7.4-5.3c0-2-1.1-2.9-2.4-4l-1-0.8c-0.3-0.3-0.7-0.6-0.7-1.2c0-0.6,0.4-1,0.7-1.3l0,0
			c1.1-0.9,2.4-1.9,2.4-4c0-2.2-1.3-3.3-2-3.8h1.7c0,0,0,0,0.1,0L16.8,3c0,0,0.1-0.1,0-0.1C16.8,2.7,16.7,2.7,16.7,2.7z M10.4,23.1
			c-3,0-5-1.4-5-3.4c0-1.3,0.8-2.3,2.4-2.9c1.3-0.4,2.9-0.5,3-0.5c0.3,0,0.4,0,0.6,0c2.1,1.5,3.1,2.3,3.1,3.7
			C14.6,22,13,23.1,10.4,23.1z M10.4,11.8c-2.5,0-3.5-3.3-3.5-5c0-0.9,0.2-1.6,0.6-2.1c0.5-0.6,1.2-0.9,2-0.9C11.8,3.8,13,6.9,13,9
			c0,0.3,0,1.4-0.7,2.1C11.8,11.5,11.1,11.8,10.4,11.8z"/>
		<path id="XMLID_5_" class="st1" d="M23.9,12.8h-2.7v-2.7c0-0.1-0.1-0.1-0.1-0.1h-1.2c-0.1,0-0.1,0.1-0.1,0.1v2.7h-2.7
			c-0.1,0-0.1,0.1-0.1,0.1v1.2c0,0.1,0.1,0.1,0.1,0.1h2.7v2.7c0,0.1,0.1,0.1,0.1,0.1h1.2c0.1,0,0.1-0.1,0.1-0.1v-2.7h2.7
			c0.1,0,0.1,0,0.1-0.1v-1.2C24,12.8,24,12.8,23.9,12.8z"/>
	</g>
</g>
</svg>
