<svg xmlns="http://www.w3.org/2000/svg" xmlns:xlink="http://www.w3.org/1999/xlink" preserveAspectRatio="xMidYMid" width="24" height="24" viewBox="0 0 24 24">
  <defs>
    <style>
      .cls-1 {
        fill: #b5b5b5;
        fill-rule: evenodd;
      }
    </style>
  </defs>
  <path d="M22.000,24.000 L2.000,24.000 C0.895,24.000 -0.000,23.105 -0.000,22.000 L-0.000,4.249 C-0.000,3.144 0.895,2.250 2.000,2.250 L5.250,2.250 L5.250,0.750 C5.250,0.335 5.586,-0.000 6.000,-0.000 C6.414,-0.000 6.750,0.335 6.750,0.750 L6.750,2.250 L11.250,2.250 L11.250,0.750 C11.250,0.335 11.586,-0.000 12.000,-0.000 C12.414,-0.000 12.750,0.335 12.750,0.750 L12.750,2.250 L17.250,2.250 L17.250,0.750 C17.250,0.335 17.585,-0.000 18.000,-0.000 C18.414,-0.000 18.750,0.335 18.750,0.750 L18.750,2.250 L22.000,2.250 C23.105,2.250 24.000,3.144 24.000,4.249 L24.000,22.000 C24.000,23.105 23.105,24.000 22.000,24.000 ZM22.500,4.249 C22.500,3.974 22.276,3.750 22.000,3.750 L18.750,3.750 L18.750,5.250 C18.750,5.664 18.414,6.000 18.000,6.000 C17.585,6.000 17.250,5.664 17.250,5.250 L17.250,3.750 L12.750,3.750 L12.750,5.250 C12.750,5.664 12.414,6.000 12.000,6.000 C11.586,6.000 11.250,5.664 11.250,5.250 L11.250,3.750 L6.750,3.750 L6.750,5.250 C6.750,5.664 6.414,6.000 6.000,6.000 C5.586,6.000 5.250,5.664 5.250,5.250 L5.250,3.750 L2.000,3.750 C1.724,3.750 1.500,3.974 1.500,4.249 L1.500,22.000 C1.500,22.276 1.724,22.500 2.000,22.500 L22.000,22.500 C22.276,22.500 22.500,22.276 22.500,22.000 L22.500,4.249 ZM15.750,16.500 L18.750,16.500 L18.750,18.750 L15.750,18.750 L15.750,16.500 ZM15.750,12.750 L18.750,12.750 L18.750,15.000 L15.750,15.000 L15.750,12.750 ZM15.750,9.000 L18.750,9.000 L18.750,11.250 L15.750,11.250 L15.750,9.000 ZM10.500,16.500 L13.500,16.500 L13.500,18.750 L10.500,18.750 L10.500,16.500 ZM10.500,12.750 L13.500,12.750 L13.500,15.000 L10.500,15.000 L10.500,12.750 ZM10.500,9.000 L13.500,9.000 L13.500,11.250 L10.500,11.250 L10.500,9.000 ZM5.250,16.500 L8.250,16.500 L8.250,18.750 L5.250,18.750 L5.250,16.500 ZM5.250,12.750 L8.250,12.750 L8.250,15.000 L5.250,15.000 L5.250,12.750 ZM5.250,9.000 L8.250,9.000 L8.250,11.250 L5.250,11.250 L5.250,9.000 Z" class="cls-1"/>
</svg>
